[
  {
    "url": "https://demo.synderapp.com/api/user/current",
    "status": 200,
    "body": "{\"email\":\"dasha.aibot@synder.com\",\"heardFrom\":\"GOOGLE\",\"id\":266,\"name\":\"Dasha\",\"openIdGoogle\":false,\"openIdIntuit\":false,\"openIdXero\":false,\"profession\":\"BUSINESS_OWNER\",\"roles\":[{\"name\":\"USER\"}],\"testMode\":false,\"demoAllowed\":true,\"accountantPracticeInfo\":{\"firmSize\":\"UP_TO_10\",\"clientsCount\":\"UP_TO_6\",\"industries\":[\"AUTOMOTIVE\"]}}"
  },
  {
    "url": "https://demo.synderapp.com/api/user/current",
    "status": 200,
    "body": "{\"email\":\"dasha.aibot@synder.com\",\"heardFrom\":\"GOOGLE\",\"id\":266,\"name\":\"Dasha\",\"openIdGoogle\":false,\"openIdIntuit\":false,\"openIdXero\":false,\"profession\":\"BUSINESS_OWNER\",\"roles\":[{\"name\":\"USER\"}],\"testMode\":false,\"demoAllowed\":true,\"accountantPracticeInfo\":{\"firmSize\":\"UP_TO_10\",\"clientsCount\":\"UP_TO_6\",\"industries\":[\"AUTOMOTIVE\"]}}"
  },
  {
    "url": "https://demo.synderapp.com/transactionreconciliation/api/reconciliations/rec_7487e8c9c991416684cdb375859c1761/results/reconciled?page=0&size=25&sortBy=RECORD_DATE&sortDirection=DESC",
    "status": 200,
    "body": "{\"items\":[],\"pagination\":{\"currentPage\":0,\"pageSize\":25,\"totalPages\":0,\"totalElements\":0,\"hasNext\":false,\"hasPrevious\":false}}"
  },
  {
    "url": "https://demo.synderapp.com/transactionreconciliation/api/reconciliations/rec_7487e8c9c991416684cdb375859c1761/results/summary",
    "status": 200,
    "body": "{\"matchedCount\":0,\"discrepancyCount\":0,\"notMatchedCount\":50,\"ignoredCount\":0,\"missingInAccountingCount\":44,\"missingInPaymentPlatformCount\":6}"
  },
  {
    "url": "https://demo.synderapp.com/transactionreconciliation/api/reconciliations/rec_7487e8c9c991416684cdb375859c1761",
    "status": 200,
    "body": "{\"reconciliation\":{\"id\":\"rec_7487e8c9c991416684cdb375859c1761\",\"status\":\"FINISHED\",\"statusDetailsInfo\":{\"reason\":null,\"lastTransition\":\"2026-04-07T11:31:08\"},\"deleted\":false,\"createdAt\":\"2026-04-07T11:13:48\",\"descriptor\":{\"dateRange\":{\"from\":\"2026-01-01\",\"to\":\"2026-01-31\"},\"accountRef\":{\"id\":\"81684\",\"name\":\"Stripe mzkt.by\",\"currency\":\"USD\"},\"accountingPlatform\":{\"providerId\":\"SYNDER\",\"id\":6105,\"displayName\":\"DS_test_2 (Synder)\",\"timeZone\":null},\"paymentPlatform\":{\"providerId\":\"STRIPE\",\"id\":6104,\"displayName\":\"mzkt.by (Stripe)\",\"timeZone\":\"Europe/Minsk\"}},\"accountingData\":{\"inputData\":{\"inputDataParametersType\":\"CUSTOM_CSV_FILE\",\"providerId\":\"SYNDER\",\"params\":{\"fileRef\":{\"id\":\"file_ea0a1da1d8d24751bb3a6be4c93edca1\",\"name\":\"Itemized_balance_change_from_activity_USD_2026_01_01_to_2026---4b27bea4-8408-4832-b4ca-ccdb702c7ba9.csv\"},\"fileHeaderTemplateId\":null,\"dateFormat\":\"MM/dd/yyyy\",\"headerMappings\":[{\"sourceColumnName\":\"balance_transaction_id\",\"targetColumn\":\"PRIMARY_ID\"},{\"sourceColumnName\":\"gross\",\"targetColumn\":\"SECONDARY_ID\"},{\"sourceColumnName\":\"created\",\"targetColumn\":\"AMOUNT\"},{\"sourceColumnName\":\"currency\",\"targetColumn\":\"CURRENCY\"},{\"sourceColumnName\":\"reporting_category\",\"targetColumn\":\"DATE\"},{\"sourceColumnName\":\"description\",\"targetColumn\":\"TYPE\"}]}},\"sourceFiles\":[{\"fileId\":\"file_ea0a1da1d8d24751bb3a6be4c93edca1\",\"fileType\":\"ACC_CUSTOM_CSV\",\"fileName\":\"Itemized_balance_change_from_activity_USD_2026_01_01_to_2026---4b27bea4-8408-4832-b4ca-ccdb702c7ba9.csv\"}],\"normalizedFile\":{\"fileId\":\"file_f4cff5cf00ff3f0b900ca9c6d0f88455\",\"fileType\":\"NORMALIZED_ACC\",\"fileName\":\"rec_7487e8c9c991416684cdb375859c1761-normalized-acc.csv\"},\"fileHeadersMappings\":{\"mappingsTemplateId\":null,\"dateFormat\":\"MM/dd/yyyy\",\"headerMappings\":[{\"sourceColumnName\":\"balance_transaction_id\",\"targetColumn\":\"PRIMARY_ID\"},{\"sourceColumnName\":\"gross\",\"targetColumn\":\"SECONDARY_ID\"},{\"sourceColumnName\":\"created\",\"targetColumn\":\"AMOUNT\"},{\"sourceColumnName\":\"currency\",\"targetColumn\":\"CURRENCY\"},{\"sourceColumnName\":\"reporting_category\",\"targetColumn\":\"DATE\"},{\"sourceColumnName\":\"description\",\"targetColumn\":\"TYPE\"}]}},\"paymentPlatformData\":{\"inputData\":{\"inputDataParametersType\":\"AUTO_DOWNLOAD_BY_SYSTEM\",\"providerId\":\"STRIPE\"},\"sourceFiles\":[{\"fileId\":\"file_58cd5efd51a03f9fbb543fe45eb9a9d8\",\"fileType\":\"STRIPE_BALANCE_CHANGE_FROM_ACTIVITY_ITEMIZED\",\"fileName\":\"balance_change_from_activity.itemized.3.csv\"},{\"fileId\":\"file_6935d92c827e3f5abc9460716b977062\",\"fileType\":\"STRIPE_PAYOUTS_ITEMIZED\",\"fileName\":\"payouts.itemized.3.csv\"}],\"normalizedFile\":{\"fileId\":\"file_4d7eb6e705083f3690bcd4c79b8d5a96\",\"fileType\":\"NORMALIZED_PP\",\"fileName\":\"normalized_stripe_data.csv\"},\"fileHeadersMappings\":null},\"matchingConfig\":{\"predefinedMatchingRuleId\":\"ACC_PRIMARY_SECONDARY_ID_EQUALS_PP_PRIMARY_SECONDARY_ID\",\"rules\":[{\"index\":0,\"rule\":{\"ppField\":\"PRIMARY_ID\",\"accField\":\"PRIMARY_ID\",\"leftOperand\":\"ACC\",\"compareOperation\":\"EQUALS\",\"groupTransactions\":true}},{\"index\":1,\"rule\":{\"ppField\":\"SECONDARY_ID\",\"accField\":\"PRIMARY_ID\",\"leftOperand\":\"ACC\",\"compareOperation\":\"EQUALS\",\"groupTransactions\":true}},{\"index\":2,\"rule\":{\"ppField\":\"SECONDARY_ID\",\"accField\":\"SECONDARY_ID\",\"leftOperand\":\"ACC\",\"compareOperation\":\"EQUALS\",\"groupTransactions\":true}}]},\"autoMatchingResult\":{\"reconciled\":{\"fileId\":\"file_a5b06bbd672c31d9bee3d92a910fa9be\",\"fileType\":\"RECONCILED\",\"fileName\":\"rec_7487e8c9c991416684cdb375859c1761-reconciled.xlsx\"},\"discrepancies\":{\"fileId\":\"file_17f3070cc0923d65ade338020791ce02\",\"fileType\":\"DISCREPANCIES\",\"fileName\":\"rec_7487e8c9c991416684cdb375859c1761-discrepancies.xlsx\"},\"missingInAccounting\":{\"fileId\":\"file_9d1db8d311bd3b84ac72f6b75b9482f8\",\"fileType\":\"MISSED_IN_ACC\",\"fileName\":\"rec_7487e8c9c991416684cdb375859c1761-missingInAccounting.xlsx\"},\"missingInPlatform\":{\"fileId\":\"file_51e6e22a1b963be6874fd16ad3f597d0\",\"fileType\":\"MISSED_IN_PP\",\"fileName\":\"rec_7487e8c9c991416684cdb375859c1761-missingInPlatform.xlsx\"}},\"reconcilingProgress\":{\"status\":\"IN_PROGRESS\",\"percentage\":0},\"shadowModeDetails\":{\"inShadowMode\":false,\"reason\":null},\"forInternalUse\":false,\"createdBy\":\"dasha.aibot@synder.com\",\"isPaymentPlatformTimeZoneDefined\":true},\"clonedFromReconciliationId\":null,\"deepLink\":\"https://demo.synderapp.com/organizations/within/1857?redirectUrl=https://demo.synderapp.com/ui/transactionReconciliation/result/rec_7487e8c9c991416684cdb375859c1761\"}"
  },
  {
    "url": "https://demo.synderapp.com/api/userMessages",
    "status": 200,
    "body": "{\"messages\":[],\"totalCount\":0,\"unreadCount\":0,\"max\":100,\"offset\":0}"
  },
  {
    "url": "https://demo.synderapp.com/api/user/current",
    "status": 200,
    "body": "{\"email\":\"dasha.aibot@synder.com\",\"heardFrom\":\"GOOGLE\",\"id\":266,\"name\":\"Dasha\",\"openIdGoogle\":false,\"openIdIntuit\":false,\"openIdXero\":false,\"profession\":\"BUSINESS_OWNER\",\"roles\":[{\"name\":\"USER\"}],\"testMode\":false,\"demoAllowed\":true,\"accountantPracticeInfo\":{\"firmSize\":\"UP_TO_10\",\"clientsCount\":\"UP_TO_6\",\"industries\":[\"AUTOMOTIVE\"]}}"
  },
  {
    "url": "https://demo.synderapp.com/transactionreconciliation/api/reconciliations/rec_7487e8c9c991416684cdb375859c1761/results/missing-in-acc?page=0&size=25&sortBy=RECORD_DATE&sortDirection=DESC",
    "status": 200,
    "body": "{\"items\":[{\"record\":{\"id\":\"record_38c5564ddd744cb0b216bde1f62465bd\",\"data\":{\"primaryId\":\"po_1Sv5SEE4pygkgelblv7pgtxg\",\"secondaryId\":\"txn_1Sv5SFE4pygkgelbkIZXPJZX\",\"amount\":-21.61,\"currency\":\"USD\",\"date\":\"2026-01-30\",\"type\":\"payout\",\"description\":\"STRIPE PAYOUT\",\"isEmpty\":false}}},{\"record\":{\"id\":\"record_3ebee3c97c544d87b52811419f46d3f5\",\"data\":{\"primaryId\":\"po_1Suj0DE4pygkgelbmyG9R9xH\",\"secondaryId\":\"txn_1Suj0EE4pygkgelb1T8BoDsJ\",\"amount\":-21.61,\"currency\":\"USD\",\"date\":\"2026-01-29\",\"type\":\"payout\",\"description\":\"STRIPE PAYOUT\",\"isEmpty\":false}}},{\"record\":{\"id\":\"record_02723798b70c4bae897510e2ef3c56dc\",\"data\":{\"primaryId\":\"po_1SuMhHE4pygkgelbNjgbpFce\",\"secondaryId\":\"txn_1SuMhIE4pygkgelbtGb9nUes\",\"amount\":-21.61,\"currency\":\"USD\",\"date\":\"2026-01-28\",\"type\":\"payout\",\"description\":\"STRIPE PAYOUT\",\"isEmpty\":false}}},{\"record\":{\"id\":\"record_0f43aa7ad24e426ea9a92e3ee62aa70a\",\"data\":{\"primaryId\":\"po_1Su0DzE4pygkgelbxyZI1u0H\",\"secondaryId\":\"txn_1Su0E0E4pygkgelbyJ7zNoA6\",\"amount\":-21.61,\"currency\":\"USD\",\"date\":\"2026-01-27\",\"type\":\"payout\",\"description\":\"STRIPE PAYOUT\",\"isEmpty\":false}}},{\"record\":{\"id\":\"record_2f128232cfc941ed89728cc47a20757c\",\"data\":{\"primaryId\":\"po_1StdtCE4pygkgelbQwePWSta\",\"secondaryId\":\"txn_1StdtDE4pygkgelbc6DvremI\",\"amount\":-64.83,\"currency\":\"USD\",\"date\":\"2026-01-26\",\"type\":\"payout\",\"description\":\"STRIPE PAYOUT\",\"isEmpty\":false}}},{\"record\":{\"id\":\"record_c1f91ba53d4e435c8b13bce361edcf82\",\"data\":{\"primaryId\":\"ch_3St8n0E4pygkgelb0NSim7zc\",\"secondaryId\":\"txn_3St8n0E4pygkgelb0iwpXyBx\",\"amount\":21.61,\"currency\":\"USD\",\"date\":\"2026-01-24\",\"type\":\"charge\",\"description\":\"Subscription update\",\"isEmpty\":false}}},{\"record\":{\"id\":\"record_e7d5396187e34633a2682036219f5a07\",\"data\":{\"primaryId\":\"po_1SsYWwE4pygkgelbFIQRLhNh\",\"secondaryId\":\"txn_1SsYWxE4pygkgelb7pQM1pvo\",\"amount\":-21.61,\"currency\":\"USD\",\"date\":\"2026-01-23\",\"type\":\"payout\",\"description\":\"STRIPE PAYOUT\",\"isEmpty\":false}}},{\"record\":{\"id\":\"record_f4aebfdc28544763a601da1bb3453fa7\",\"data\":{\"primaryId\":\"ch_3SsmJfE4pygkgelb09nENSPW\",\"secondaryId\":\"txn_3SsmJfE4pygkgelb0QqS1Wwi\",\"amount\":21.61,\"currency\":\"USD\",\"date\":\"2026-01-23\",\"type\":\"charge\",\"description\":\"Subscription update\",\"isEmpty\":false}}},{\"record\":{\"id\":\"record_5df973e7c91844608801b56233d25ea4\",\"data\":{\"primaryId\":\"ch_3SsPqKE4pygkgelb1OiVjnTj\",\"secondaryId\":\"txn_3SsPqKE4pygkgelb13efZQCT\",\"amount\":21.61,\"currency\":\"USD\",\"date\":\"2026-01-22\",\"type\":\"charge\",\"description\":\"Subscription update\",\"isEmpty\":false}}},{\"record\":{\"id\":\"record_755dc065719b403c8017b4b40ecebf1d\",\"data\":{\"primaryId\":\"po_1SsC7QE4pygkgelb12gDYkvn\",\"secondaryId\":\"txn_1SsC7XE4pygkgelb6gvyKWIi\",\"amount\":-21.61,\"currency\":\"USD\",\"date\":\"2026-01-22\",\"type\":\"payout\",\"description\":\"STRIPE PAYOUT\",\"isEmpty\":false}}},{\"record\":{\"id\":\"record_0a731aa2be71460996c7474c7a3e60af\",\"data\":{\"primaryId\":\"po_1SrpNIE4pygkgelbePbE9QUk\",\"secondaryId\":\"txn_1SrpNIE4pygkgelbyp2UqWEK\",\"amount\":-21.61,\"currency\":\"USD\",\"date\":\"2026-01-21\",\"type\":\"payout\",\"description\":\"STRIPE PAYOUT\",\"isEmpty\":false}}},{\"record\":{\"id\":\"record_c40d95020f334fefb707f56027f0d206\",\"data\":{\"primaryId\":\"ch_3Ss3MWE4pygkgelb03WZ36yU\",\"secondaryId\":\"txn_3Ss3MWE4pygkgelb0O0BpQEO\",\"amount\":21.61,\"currency\":\"USD\",\"date\":\"2026-01-21\",\"type\":\"charge\",\"description\":\"Subscription update\",\"isEmpty\":false}}},{\"record\":{\"id\":\"record_3562fb67fe9c4eeeab91bc28f6ba6f40\",\"data\":{\"primaryId\":\"po_1SrT3uE4pygkgelbDUwSJjXx\",\"secondaryId\":\"txn_1SrT3vE4pygkgelb3wXpmUXe\",\"amount\":-86.44,\"currency\":\"USD\",\"date\":\"2026-01-20\",\"type\":\"payout\",\"description\":\"STRIPE PAYOUT\",\"isEmpty\":false}}},{\"record\":{\"id\":\"record_5091c37feb8f444194ea6ff482b254e9\",\"data\":{\"primaryId\":\"ch_3SrgsdE4pygkgelb05PxB0Os\",\"secondaryId\":\"txn_3SrgsdE4pygkgelb06vZT72m\",\"amount\":21.61,\"currency\":\"USD\",\"date\":\"2026-01-20\",\"type\":\"charge\",\"description\":\"Subscription update\",\"isEmpty\":false}}},{\"record\":{\"id\":\"record_4671d0929d254b92813b64bff3d0f57e\",\"data\":{\"primaryId\":\"ch_3SrKPvE4pygkgelb1HOdWR1D\",\"secondaryId\":\"txn_3SrKPvE4pygkgelb1VMDNb6D\",\"amount\":21.61,\"currency\":\"USD\",\"date\":\"2026-01-19\",\"type\":\"charge\",\"description\":\"Subscription update\",\"isEmpty\":false}}},{\"record\":{\"id\":\"record_aaec89a913b847a7af876811722524c3\",\"data\":{\"primaryId\":\"ch_3SqxvrE4pygkgelb1kRIyRIx\",\"secondaryId\":\"txn_3SqxvrE4pygkgelb1w0k0MD7\",\"amount\":21.61,\"currency\":\"USD\",\"date\":\"2026-01-18\",\"type\":\"charge\",\"description\":\"Subscription update\",\"isEmpty\":false}}},{\"record\":{\"id\":\"record_523ef6f25c904a558b0db50253234d27\",\"data\":{\"primaryId\":\"ch_3SqbSmE4pygkgelb13bQzvWf\",\"secondaryId\":\"txn_3SqbSmE4pygkgelb12rhxUmG\",\"amount\":21.61,\"currency\":\"USD\",\"date\":\"2026-01-17\",\"type\":\"charge\",\"description\":\"Subscription update\",\"isEmpty\":false}}},{\"record\":{\"id\":\"record_acc21311272f41f48f949d3cc1a88869\",\"data\":{\"primaryId\":\"po_1Sq19cE4pygkgelb5DkzoazF\",\"secondaryId\":\"txn_1Sq19dE4pygkgelbMI5AUCjt\",\"amount\":-21.61,\"currency\":\"USD\",\"date\":\"2026-01-16\",\"type\":\"payout\",\"description\":\"STRIPE PAYOUT\",\"isEmpty\":false}}},{\"record\":{\"id\":\"record_b8c9565a22094d58be398d426443096e\",\"data\":{\"primaryId\":\"ch_3SqEyHE4pygkgelb0AQDvZTJ\",\"secondaryId\":\"txn_3SqEyHE4pygkgelb0POig6KS\",\"amount\":21.61,\"currency\":\"USD\",\"date\":\"2026-01-16\",\"type\":\"charge\",\"description\":\"Subscription update\",\"isEmpty\":false}}},{\"record\":{\"id\":\"record_380804726b284742b4fbe496ee60f32f\",\"data\":{\"primaryId\":\"ch_3SpsVpE4pygkgelb0ub8Fy2i\",\"secondaryId\":\"txn_3SpsVpE4pygkgelb0y4zlKsm\",\"amount\":21.61,\"currency\":\"USD\",\"date\":\"2026-01-15\",\"type\":\"charge\",\"description\":\"Subscription update\",\"isEmpty\":false}}},{\"record\":{\"id\":\"record_58f8700e20fa48b0a44c5977bc3c702b\",\"data\":{\"primaryId\":\"po_1SpeoUE4pygkgelb3hAytCH8\",\"secondaryId\":\"txn_1SpeoVE4pygkgelbRMfHDtFY\",\"amount\":-21.61,\"currency\":\"USD\",\"date\":\"2026-01-15\",\"type\":\"payout\",\"description\":\"STRIPE PAYOUT\",\"isEmpty\":false}}},{\"record\":{\"id\":\"record_dae0e3f53fa644bdaa23e042a0743624\",\"data\":{\"primaryId\":\"ch_3SpW1kE4pygkgelb1NCLndKd\",\"secondaryId\":\"txn_3SpW1kE4pygkgelb10IeD4E0\",\"amount\":21.61,\"currency\":\"USD\",\"date\":\"2026-01-14\",\"type\":\"charge\",\"description\":\"Subscription update\",\"isEmpty\":false}}},{\"record\":{\"id\":\"record_ddaafd54fa68483897d43e775fd4d6d4\",\"data\":{\"primaryId\":\"po_1SpIGWE4pygkgelbHsGw2h3N\",\"secondaryId\":\"txn_1SpIGXE4pygkgelbBIP7WJ1m\",\"amount\":-21.61,\"currency\":\"USD\",\"date\":\"2026-01-14\",\"type\":\"payout\",\"description\":\"STRIPE PAYOUT\",\"isEmpty\":false}}},{\"record\":{\"id\":\"record_79d38f158f104271bdc13ee7d78445e0\",\"data\":{\"primaryId\":\"ch_3Sp9YsE4pygkgelb0Wdv6FTt\",\"secondaryId\":\"txn_3Sp9YsE4pygkgelb0AFtI8nY\",\"amount\":21.61,\"currency\":\"USD\",\"date\":\"2026-01-13\",\"type\":\"charge\",\"description\":\"Subscription update\",\"isEmpty\":false}}},{\"record\":{\"id\":\"record_991149e2e3c44772b864bef99e07cc9a\",\"data\":{\"primaryId\":\"po_1Sovn3E4pygkgelbkjewZtaG\",\"secondaryId\":\"txn_1Sovn3E4pygkgelbeLcgV1qJ\",\"amount\":-21.61,\"currency\":\"USD\",\"date\":\"2026-01-13\",\"type\":\"payout\",\"description\":\"STRIPE PAYOUT\",\"isEmpty\":false}}}],\"pagination\":{\"currentPage\":0,\"pageSize\":25,\"totalPages\":2,\"totalElements\":44,\"hasNext\":true,\"hasPrevious\":false}}"
  },
  {
    "url": "https://demo.synderapp.com/transactionreconciliation/api/reconciliations/rec_7487e8c9c991416684cdb375859c1761/results/missing-in-pp?page=0&size=25&sortBy=RECORD_DATE&sortDirection=DESC",
    "status": 200,
    "body": "{\"items\":[{\"record\":{\"id\":\"record_3450503b6d3a41c4b686aac3c9c7b6a8\",\"data\":{\"primaryId\":\"txn_3Ss2XO7QSl16uhjV1NjoU1E5\",\"secondaryId\":\"20.00\",\"amount\":null,\"currency\":\"USD\",\"date\":null,\"type\":\"(created by Stripe CLI)\",\"description\":\"\",\"isEmpty\":false}}},{\"record\":{\"id\":\"record_4008c248f64848fba31cfd076148878f\",\"data\":{\"primaryId\":\"txn_3SpPWh7QSl16uhjV0XGrjXrU\",\"secondaryId\":\"300.00\",\"amount\":null,\"currency\":\"USD\",\"date\":null,\"type\":\"Subscription creation\",\"description\":\"\",\"isEmpty\":false}}},{\"record\":{\"id\":\"record_86275df86d874e6688b7e99b11176275\",\"data\":{\"primaryId\":\"txn_3SpPhv7QSl16uhjV0qzAtwno\",\"secondaryId\":\"130.00\",\"amount\":null,\"currency\":\"USD\",\"date\":null,\"type\":\"Subscription creation\",\"description\":\"\",\"isEmpty\":false}}},{\"record\":{\"id\":\"record_9f7d477947f049be9067ddbf7fafe0bd\",\"data\":{\"primaryId\":\"txn_3Ss23C7QSl16uhjV0kQH8M9a\",\"secondaryId\":\"300.00\",\"amount\":null,\"currency\":\"USD\",\"date\":null,\"type\":\"Payment for Invoice\",\"description\":\"\",\"isEmpty\":false}}},{\"record\":{\"id\":\"record_cca53e9f8fe344e28ccbbd6a5fb0dd18\",\"data\":{\"primaryId\":\"txn_3SpPi07QSl16uhjV0XSw78Bz\",\"secondaryId\":\"200.00\",\"amount\":null,\"currency\":\"USD\",\"date\":null,\"type\":\"Subscription creation\",\"description\":\"\",\"isEmpty\":false}}},{\"record\":{\"id\":\"record_fa4ad65108b34ac999afed165a73424a\",\"data\":{\"primaryId\":\"txn_3Ss2KJ7QSl16uhjV0PD8Hy6I\",\"secondaryId\":\"20.00\",\"amount\":null,\"currency\":\"USD\",\"date\":null,\"type\":\"(created by Stripe CLI)\",\"description\":\"\",\"isEmpty\":false}}}],\"pagination\":{\"currentPage\":0,\"pageSize\":25,\"totalPages\":1,\"totalElements\":6,\"hasNext\":false,\"hasPrevious\":false}}"
  }
]